// Jest Snapshot v1, https://goo.gl/fbAQLP

exports[`should render 1`] = `
<PanelContainer>
  <Panel>
    <PanelHeader
      className="bg-blue"
    >
      <Grid>
        <Row
          bsClass="row"
          componentClass="div"
        >
          <Col
            className="fg-white"
            xs={12}
          >
            <h3>
              Welcome!
            </h3>
          </Col>
        </Row>
      </Grid>
    </PanelHeader>
    <PanelBody>
      <Grid>
        <Row
          bsClass="row"
          componentClass="div"
        >
          <Col
            xs={12}
          >
            <p>
              Welcome to The Core!
            </p>
          </Col>
        </Row>
      </Grid>
    </PanelBody>
  </Panel>
</PanelContainer>
`;
