// Jest Snapshot v1, https://goo.gl/fbAQLP

exports[`should render with custom choices (false case) 1`] = `
<WrappedFormGroup>
  <ControlLabel
    bsClass="control-label"
    srOnly={false}
  />
  <FormControlStatic
    bsClass="form-control-static"
    componentClass="p"
    onChange={[Function]}
    value={false}
  >
    no
  </FormControlStatic>
  <FormControlFeedback
    bsClass="form-control-feedback"
    bsRole="feedback"
  />
</WrappedFormGroup>
`;

exports[`should render with custom choices (true case) 1`] = `
<WrappedFormGroup>
  <ControlLabel
    bsClass="control-label"
    srOnly={false}
  />
  <FormControlStatic
    bsClass="form-control-static"
    componentClass="p"
    onChange={[Function]}
    value={true}
  >
    yes
  </FormControlStatic>
  <FormControlFeedback
    bsClass="form-control-feedback"
    bsRole="feedback"
  />
</WrappedFormGroup>
`;
