// Jest Snapshot v1, https://goo.gl/fbAQLP

exports[`should render a basic link 1`] = `
<Button
  action="push"
  onClick={[Function]}
>
  Somewhere
</Button>
`;

exports[`should render extra props 1`] = `
<Button
  action="push"
  bsStyle="primary"
  onClick={[Function]}
>
  Somewhere (primary style)
</Button>
`;
